{
	"commentStamp" : "",
	"super" : "TestCase",
	"category" : "Cooppuzzle-Core-tests",
	"classinstvars" : [ ],
	"pools" : [ ],
	"classvars" : [ ],
	"instvars" : [ ],
	"name" : "CPCellTest",
	"type" : "normal"
}