{
	"commentStamp" : "Casco 10/21/2018 21:05",
	"super" : "ComposableModel",
	"category" : "Cooppuzzle-UI-spec",
	"classinstvars" : [ ],
	"pools" : [ ],
	"classvars" : [ ],
	"instvars" : [
		"solveButton",
		"shuffleButton",
		"destroyButton",
		"fromFileButton",
		"game",
		"imageFile",
		"columns"
	],
	"name" : "BasicCooppuzzleComposableModel",
	"type" : "normal"
}