{
	"commentStamp" : "Casco 10/21/2018 12:07",
	"super" : "ImageMorph",
	"category" : "Cooppuzzle-UI-morphic",
	"classinstvars" : [ ],
	"pools" : [ ],
	"classvars" : [ ],
	"instvars" : [
		"piece",
		"offset",
		"game"
	],
	"name" : "CPPieceMorph",
	"type" : "normal"
}