{
	"commentStamp" : "Casco 10/21/2018 10:27",
	"super" : "Announcement",
	"category" : "Cooppuzzle-Core-model",
	"classinstvars" : [ ],
	"pools" : [ ],
	"classvars" : [ ],
	"instvars" : [
		"piece",
		"from",
		"to"
	],
	"name" : "PieceMovedAnnouncement",
	"type" : "normal"
}